…
#> Number of cells: 299 
#> 
#> Observation years: 1862 - 2023 
#> Total years with observations: 125 
#> 
#> Number of species represented: 106 
#> Number of families represented: 31 
#> 
#> Kingdoms represented: Animalia 
#> 
#> Map layers:  
#> 
#> First 10 rows of data (use n = to show more):
#> 
#> # A tibble: 299 × 3
#>    cellid   area diversity_val
#>     <int> [km^2]         <int>
#>  1     68   447.            NA
#>  2     69   447.            NA
#>  3     70   447.            20
#>  4     71   447.            NA
#>  5     72   447.            NA
#>  6     73   447.            34
#>  7     74   447.            NA
#>  8     75   447.            40
#>  9     76   447.            37
#> 10     77   447.            21
#> # ℹ 289 more rows
```
