Calculate Biodiversity Indicators Over Space or Time — compute_indicator_workflow • b3gbi
…
#> 
#> Grid cell size: 0.25 km^2 
#> Number of cells: 168 
#> 
#> Observation years: 1862 - 2023 
#> Total years with observations: 125 
#> 
#> Number of species represented: 106 
#> Number of families represented: 31 
#> 
#> Kingdoms represented: Animalia 
#> 
#> First 10 rows of data (use n = to show more):
#> 
#> # A tibble: 168 × 3
#>    cellid area_km2 diversity_val
#>     <int>   [km^2]         <int>
#>  1     72     446.            32
#>  2     73     446.            34
#>  3     74     446.            47
#>  4     75     446.            48
#>  5     76     446.            37
#>  6     77     446.            21
#>  7     78     446.            33
#>  8     79     446.            32
#>  9     80     446.            29
#> 10     81     446.            41
#> # ℹ 158 more rows
…
