Print an Indicator Map Object — print.indicator_map • b3gbi
…
#> 
#> Grid cell size: 1 km^2 
#> Number of cells: 46 
#> 
#> Observation years: 1862 - 2023 
#> Total years with observations: 125 
#> 
#> Number of species represented: 106 
#> Number of families represented: 31 
#> 
#> Kingdoms represented: Animalia 
#> 
#> First 10 rows of data (use n = to show more):
#> 
#> # A tibble: 46 × 171
#>    cellid area_km2 featurecla     scalerank labelrank sovereignt sov_a3 adm0_dif
#>     <int>   [km^2] <chr>              <int>     <int> <chr>      <chr>     <int>
#>  1     10    7114. Admin-0 count…         3         3 Sweden     SWE           0
#>  2     11    7114. Admin-0 count…         3         3 Sweden     SWE           0
#>  3     23    6936. Admin-0 count…         3         3 Sweden     SWE           0
#>  4     24    6936. Admin-0 count…         3         3 Sweden     SWE           0
#>  5     25    6936. Admin-0 count…         3         3 Sweden     SWE           0
#>  6     26    6936. Admin-0 count…         3         3 Sweden     SWE           0
#>  7     35    6756. Admin-0 count…         3         3 Sweden     SWE           0
#>  8     36    6756. Admin-0 count…         3         3 Sweden     SWE           0
#>  9     37    6756. Admin-0 count…         3         3 Sweden     SWE           0
#> 10     38    6756. Admin-0 count…         3         3 Sweden     SWE           0
#> # ℹ 36 more rows
#> # ℹ 163 more variables: level <int>, type <chr>, tlc <chr>, admin <chr>,
#> #   adm0_a3 <chr>, geou_dif <int>, geounit <chr>, gu_a3 <chr>, su_dif <int>,
#> #   subunit <chr>, su_a3 <chr>, brk_diff <int>, name <chr>, name_long <chr>,
#> #   brk_a3 <chr>, brk_name <chr>, brk_group <chr>, abbrev <chr>, postal <chr>,
#> #   formal_en <chr>, formal_fr <chr>, name_ciawf <chr>, note_adm0 <chr>,
#> #   note_brk <chr>, name_sort <chr>, name_alt <chr>, mapcolor7 <int>, …
…
