A Gentle Introduction to b3gbi: Data Cubes to Biodiversity Indicators • b3gbi
…
#> Number of cells: 186 
#> Grid reference system: eqdgc 
#> Coordinate range:
#>  xmin  xmax  ymin  ymax 
#>  3.75 15.25 54.50 58.25 
#> 
#> Total number of observations: 6064 
#> Number of species represented: 53 
#> Number of families represented: 19 
#> 
#> Kingdoms represented: Animalia 
#> 
#> First 10 rows of data (use n = to show more):
#> 
#> # A tibble: 969 × 15
#>     year cellCode  kingdomKey kingdom  familyKey family  taxonKey scientificName
#>    <dbl> <chr>     <chr>      <chr>    <chr>     <chr>   <chr>    <chr>         
#>  1  1980 E010N55AA 1          Animalia 5307      Mustel… 5219019  Mustela ermin…
#>  2  1980 E012N55AD 1          Animalia 5534      Sorici… 8316400  Sorex araneus 
#>  3  1981 E008N55CB 1          Animalia 5310      Phocid… 2434806  Halichoerus g…
#>  4  1981 E010N57BA 1          Animalia 3240723   Cricet… 4265185  Arvicola amph…
#>  5  1981 E011N57CC 1          Animalia 5310      Phocid… 2434806  Halichoerus g…
#>  6  1982 E010N56AD 1          Animalia 5310      Phocid… 2434806  Halichoerus g…
#>  7  1982 E011N56DC 1          Animalia 5310      Phocid… 2434793  Phoca vitulina
#>  8  1983 E009N55CD 1          Animalia 9379      Lepori… 7952072  Lepus europae…
#>  9  1983 E011N55AB 1          Animalia 5310      Phocid… 2434793  Phoca vitulina
#> 10  1983 E015N55CA 1          Animalia 5310      Phocid… 2434806  Halichoerus g…
#> # ℹ 959 more rows
#> # ℹ 7 more variables: obs <dbl>, minCoordinateUncertaintyInMeters <dbl>,
#> #   minTemporalUncertainty <dbl>, familyCount <dbl>, xcoord <dbl>,
#> #   ycoord <dbl>, resolution <chr>
…
